digraph visited_states {
graph [nodesep=1.5, ranksep=1.5];
root [shape=invtriangle, color="#99BF38", fontsize=12, penwidth=2, label="root"];

root -> 0 [style = dotted, color = black, label="INITIALISATION(\{\})", fontsize=12];

0 [shape=doubleoctagon, color="#99BF38", fontsize=12, penwidth=2, label="houseset = \{\}"];

0 -> 1 [color = "#006391", label="add(1)", fontsize=12];
0 -> 2 [color = "#006391", label="add(2)", fontsize=12];
0 -> 3 [color = "#006391", label="add(3)", fontsize=12];

1 [shape=box, color="#F4E3C1", fontsize=12, penwidth=2, label="houseset = \{1\}"];


2 [shape=box, color="#99BF38", fontsize=12, penwidth=2, label="houseset = \{2\}"];

2 -> 7 [color = "#006391", label="add(1)", fontsize=12];
2 -> 5 [color = "#006391", label="add(3)", fontsize=12];
2 -> 0 [color = "#006391", label="delete(2)", fontsize=12];

3 [shape=box, color="#99BF38", fontsize=12, penwidth=2, label="houseset = \{3\}"];

3 -> 4 [color = "#006391", label="add(1)", fontsize=12];
3 -> 5 [color = "#006391", label="add(2)", fontsize=12];
3 -> 0 [color = "#006391", label="delete(3)", fontsize=12];

4 [shape=box, color="#F4E3C1", fontsize=12, penwidth=2, label="houseset = \{1,3\}"];


5 [shape=box, color="#99BF38", fontsize=12, penwidth=2, label="houseset = \{2,3\}"];

5 -> 6 [color = "#006391", label="add(1)", fontsize=12];
5 -> 3 [color = "#006391", label="delete(2)", fontsize=12];
5 -> 2 [color = "#006391", label="delete(3)", fontsize=12];

6 [shape=box, color="#F4E3C1", fontsize=12, penwidth=2, label="houseset = \{1,2,3\}"];


7 [shape=box, color="#F4E3C1", fontsize=12, penwidth=2, label="houseset = \{1,2\}"];


}
