digraph "history" {
	graph [
		fontsize = "14"
		fontname = "Times-Roman"
		fontcolor = "black"
		nodesep = "1.5"
		ranksep = "1.5"
	]
	node [
		fontsize = "14"
		fontname = "Times-Roman"
		fontcolor = "black"
		shape = "ellipse"
		style = "solid"
	]
	edge [
		fontsize = "14"
		fontname = "Times-Roman"
		fontcolor = "black"
		style = "solid"
	]
	"root" [
		fontsize = "12"
		fontname = "Times-Roman"
		fontcolor = "black"
		penwidth = "2"
		label = "root"
		shape = "invtriangle"
		style = "solid"
		color = "#99BF38"
	]
	"0" [
		fontsize = "12"
		fontname = "Times-Roman"
		fontcolor = "black"
		penwidth = "2"
		label = "available_houses = \{1,2,3,4,5,6,7,8,9,10,11,12,13,14,15\}"
		shape = "box"
		style = "solid"
		color = "#99BF38"
	]
	"1" [
		fontsize = "12"
		fontname = "Times-Roman"
		fontcolor = "black"
		penwidth = "2"
		label = "house_newspaper = \{\},house_magazine = \{\}"
		shape = "box"
		style = "solid"
		color = "#99BF38"
	]
	"2" [
		fontsize = "12"
		fontname = "Times-Roman"
		fontcolor = "black"
		penwidth = "2"
		label = "house_newspaper(1) = Guardian,house_magazine = \{\}"
		shape = "box"
		style = "solid"
		color = "#99BF38"
	]
	"20" [
		fontsize = "12"
		fontname = "Times-Roman"
		fontcolor = "black"
		penwidth = "2"
		label = "house_newspaper(1) = Guardian,house_newspaper(2) = Telegraph,house_magazine = \{\}"
		shape = "box"
		style = "solid"
		color = "#99BF38"
	]
	"23" [
		fontsize = "12"
		fontname = "Times-Roman"
		fontcolor = "black"
		penwidth = "2"
		label = "house_newspaper(1) = Guardian,house_newspaper(2) = Telegraph,house_magazine(1) = NewScientist"
		shape = "box"
		style = "solid"
		color = "#99BF38"
	]
	"39" [
		fontsize = "12"
		fontname = "Times-Roman"
		fontcolor = "black"
		penwidth = "2"
		label = "house_newspaper(1) = Guardian,house_newspaper(2) = Telegraph,house_magazine(1) = NewScientist,\nhouse_magazine(2) = PrivateEye"
		shape = "box"
		style = "solid"
		color = "#99BF38"
	]
	"46" [
		fontsize = "12"
		fontname = "Times-Roman"
		fontcolor = "black"
		penwidth = "2"
		label = "house_newspaper(1) = Guardian,house_newspaper(2) = Telegraph,house_magazine(1) = NewScientist,\nhouse_magazine(1) = Hello,house_magazine(2) = PrivateEye"
		shape = "box"
		style = "solid"
		color = "#99BF38"
	]
	"51" [
		fontsize = "12"
		fontname = "Times-Roman"
		fontcolor = "black"
		penwidth = "2"
		label = "house_newspaper(1) = Guardian,house_newspaper(2) = Telegraph,house_magazine(1) = NewScientist,\nhouse_magazine(1) = Beano,house_magazine(1) = Hello,house_magazine(2) = PrivateEye"
		shape = "box"
		style = "solid"
		color = "#99BF38"
	]
	"58" [
		fontsize = "12"
		fontname = "Times-Roman"
		fontcolor = "black"
		penwidth = "2"
		label = "house_newspaper(1) = Guardian,house_newspaper(2) = Telegraph,house_magazine(1) = NewScientist,\nhouse_magazine(1) = Beano,house_magazine(1) = Hello,house_magazine(2) = NewScientist,\nhouse_magazine(2) = PrivateEye"
		shape = "box"
		style = "solid"
		color = "#99BF38"
	]
	"65" [
		fontsize = "12"
		fontname = "Times-Roman"
		fontcolor = "black"
		penwidth = "2"
		label = "house_newspaper(1) = Guardian,house_newspaper(2) = Telegraph,house_magazine(1) = NewScientist,\nhouse_magazine(1) = Beano,house_magazine(1) = Hello"
		shape = "box"
		style = "solid"
		color = "#99BF38"
	]
	"66" [
		fontsize = "12"
		fontname = "Times-Roman"
		fontcolor = "black"
		penwidth = "2"
		label = "house_newspaper(1) = Guardian,house_magazine(1) = NewScientist,house_magazine(1) = Beano,\nhouse_magazine(1) = Hello"
		shape = "doubleoctagon"
		style = "solid"
		color = "#99BF38"
	]
	"root" -> "0" [
		fontsize = "12"
		fontname = "Times-Roman"
		fontcolor = "black"
		label = "SETUP_CONSTANTS(\{1,2,3,4,5,6,7,8,9,10,11,12,13,14,\n15\})"
		style = "dotted"
		color = "black"
	]
	"0" -> "1" [
		fontsize = "12"
		fontname = "Times-Roman"
		fontcolor = "black"
		label = "INITIALISATION(\{\},\{\})"
		style = "solid"
		color = "#006391"
	]
	"1" -> "2" [
		fontsize = "12"
		fontname = "Times-Roman"
		fontcolor = "black"
		label = "requestPaperDelivery(1,Guardian)--\>Success"
		style = "solid"
		color = "#006391"
	]
	"2" -> "20" [
		fontsize = "12"
		fontname = "Times-Roman"
		fontcolor = "black"
		label = "requestPaperDelivery(2,Telegraph)--\>Success"
		style = "solid"
		color = "#006391"
	]
	"20" -> "23" [
		fontsize = "12"
		fontname = "Times-Roman"
		fontcolor = "black"
		label = "requestMagazineDelivery(1,NewScientist)--\>Success"
		style = "solid"
		color = "#006391"
	]
	"23" -> "39" [
		fontsize = "12"
		fontname = "Times-Roman"
		fontcolor = "black"
		label = "requestMagazineDelivery(2,PrivateEye)--\>Success"
		style = "solid"
		color = "#006391"
	]
	"39" -> "46" [
		fontsize = "12"
		fontname = "Times-Roman"
		fontcolor = "black"
		label = "requestMagazineDelivery(1,Hello)--\>Success"
		style = "solid"
		color = "#006391"
	]
	"46" -> "51" [
		fontsize = "12"
		fontname = "Times-Roman"
		fontcolor = "black"
		label = "requestMagazineDelivery(1,Beano)--\>Success"
		style = "solid"
		color = "#006391"
	]
	"51" -> "58" [
		fontsize = "12"
		fontname = "Times-Roman"
		fontcolor = "black"
		label = "requestMagazineDelivery(2,NewScientist)--\>Success"
		style = "solid"
		color = "#006391"
	]
	"58" -> "51" [
		fontsize = "12"
		fontname = "Times-Roman"
		fontcolor = "black"
		label = "cancelMagazineDelivery(2,NewScientist)--\>Success"
		style = "solid"
		color = "#006391"
	]
	"51" -> "65" [
		fontsize = "12"
		fontname = "Times-Roman"
		fontcolor = "black"
		label = "cancelMagazineDelivery(2,PrivateEye)--\>Success"
		style = "solid"
		color = "#006391"
	]
	"65" -> "66" [
		fontsize = "12"
		fontname = "Times-Roman"
		fontcolor = "black"
		label = "cancelPaperDelivery(2)--\>Success"
		style = "solid"
		color = "#006391"
	]
}
