digraph {
DeliveryController [ label=" DeliveryController " shape= box ]
Magazine [ label=" Magazine " shape= box ]
Newspaper [ label=" Newspaper " shape= box ]
Shared [ label=" Shared " shape= box ]

"DeliveryController" -> "Shared" [style= dotted ]
"Magazine" -> "Shared" [style= dotted ]
"Newspaper" -> "Shared" [style= dotted ]
}
